Twenty-Five Things You Didn’t Know You Could Do with R
…
rvest::read_html("https://en.wikipedia.org/wiki/List_of_FIFA_World_Cup_finals") |>
  rvest::html_elements("table") |>
  purrr::pluck(4) |>
  rvest::html_table() |>
  dplyr::select(-Ref.)

# A tibble: 23 × 7
    Year Winners      Score        `Runners-up`   Venue      Location Attendance
   <int> <chr>        <chr>        <chr>          <chr>      <chr>    <chr>     
 1  1930 Uruguay      4–2          Argentina      Estadio C… Montevi… 68,346    
 2  1934 Italy        2–1 (a.e.t.) Czechoslovakia Stadio Na… Rome, I… 55,000    
 3  1938 Italy        4–2          Hungary        Stade Oly… Paris, … 45,000    
 4  1950 Uruguay      2–1[n 3]     Brazil         Maracanã … Rio de … 173,850   
 5  1954 West Germany 3–2          Hungary        Wankdorf … Bern, S… 62,500    
 6  1958 Brazil       5–2          Sweden         Råsunda S… Solna, … 49,737    
 7  1962 Brazil       3–1          Czechoslovakia Estadio N… Santiag… 68,679    
 8  1966 England      4–2 (a.e.t.) West Germany   Wembley S… London,… 96,924    
 9  1970 Brazil       4–1          Italy          Estadio A… Mexico … 107,412   
10  1974 West Germany 2–1          Netherlands    Olympiast… Munich,… 78,200    
# ℹ 13 more rows
…
